[gd_scene load_steps=4 format=2]

[ext_resource path="res://icon.png" type="Texture" id=1]
[ext_resource path="res://Car.cs" type="Script" id=2]
[ext_resource path="res://CarTrack.cs" type="Script" id=3]

[node name="PathFollow2D" type="PathFollow2D"]
cubic_interp = false
loop = false
lookahead = 1.0
script = ExtResource( 3 )

[node name="Car" type="Sprite" parent="."]
texture = ExtResource( 1 )
script = ExtResource( 2 )
